INDEX VERSION 1.131+C:\Users\Guto\Desktop\Testes\.metadata\.plugins\org.eclipse.jdt.core
1400714773.index
3681335767.index
2312443017.index
2390158535.index
1004716384.index
3256285438.index
1383176849.index
3119455041.index
188619105.index
1583927216.index
2927524569.index
2275398589.index
375126478.index
1317357280.index
3622575736.index
2017505986.index
3353272255.index
3878457715.index
2625319055.index
157166002.index
2612948820.index
444847424.index
2167310551.index
3462493828.index
486699731.index
1006869320.index
2831536327.index
1847969816.index
3927496509.index
896702151.index
582372220.index
3311276093.index
1904741536.index
3324179882.index
312259180.index
2851665483.index
2044163536.index
4035613063.index
2484247682.index
4166838873.index
3172068124.index
949642192.index
1767482516.index
